{
  "@quasar/icon-genie": {
    "minify_dev": "optipng",
    "minify_build": "optipng",
    "cordova": {
      "background_color": "#011826",
      "splashscreen_type": "generate"
    },
    "build_always": true,
    "__internal": {
      "dev": {
        "spa": {
          "iconHash": "3a1aa66272f9f662cda0534e6f45b918"
        }
      },
      "build": {
        "spa": {
          "iconHash": "3a1aa66272f9f662cda0534e6f45b918"
        }
      }
    }
  }
}